{
  "aa": {
    "code": "aa",
    "label": "Afar",
    "native": "Afar",
    "wd": "Q27811"
  },
  "ab": {
    "code": "ab",
    "label": "Abkhazian",
    "native": "Аҧсуа",
    "wd": "Q5111"
  },
  "af": {
    "code": "af",
    "label": "Afrikaans",
    "native": "Afrikaans",
    "wd": "Q14196"
  },
  "ak": {
    "code": "ak",
    "label": "Akan",
    "native": "Akana",
    "wd": "Q28026"
  },
  "am": {
    "code": "am",
    "label": "Amharic",
    "native": "አማርኛ",
    "wd": "Q28244"
  },
  "an": {
    "code": "an",
    "label": "Aragonese",
    "native": "Aragonés",
    "wd": "Q8765"
  },
  "ar": {
    "code": "ar",
    "label": "Arabic",
    "native": "العربية",
    "wd": "Q13955"
  },
  "as": {
    "code": "as",
    "label": "Assamese",
    "native": "অসমীয়া",
    "wd": "Q29401"
  },
  "av": {
    "code": "av",
    "label": "Avar",
    "native": "Авар",
    "wd": "Q29561"
  },
  "ay": {
    "code": "ay",
    "label": "Aymara",
    "native": "Aymar",
    "wd": "Q4627"
  },
  "az": {
    "code": "az",
    "label": "Azerbaijani",
    "native": "Azərbaycanca",
    "wd": "Q9292"
  },
  "ba": {
    "code": "ba",
    "label": "Bashkir",
    "native": "Башҡорт",
    "wd": "Q13389"
  },
  "be": {
    "code": "be",
    "label": "Belarusian",
    "native": "Беларуская",
    "wd": "Q9091"
  },
  "bg": {
    "code": "bg",
    "label": "Bulgarian",
    "native": "Български",
    "wd": "Q7918"
  },
  "bh": {
    "code": "bh",
    "label": "Bihari",
    "native": "भोजपुरी",
    "wd": "Q33268"
  },
  "bi": {
    "code": "bi",
    "label": "Bislama",
    "native": "Bislama",
    "wd": "Q35452"
  },
  "bm": {
    "code": "bm",
    "label": "Bambara",
    "native": "Bamanankan",
    "wd": "Q33243"
  },
  "bn": {
    "code": "bn",
    "label": "Bengali",
    "native": "বাংলা",
    "wd": "Q9610"
  },
  "bo": {
    "code": "bo",
    "label": "Tibetan",
    "native": "བོད་ཡིག",
    "wd": "Q34271"
  },
  "br": {
    "code": "br",
    "label": "Breton",
    "native": "Brezhoneg",
    "wd": "Q12107"
  },
  "bs": {
    "code": "bs",
    "label": "Bosnian",
    "native": "Bosanski",
    "wd": "Q9303"
  },
  "ca": {
    "code": "ca",
    "label": "Catalan",
    "native": "Català",
    "wd": "Q7026"
  },
  "ce": {
    "code": "ce",
    "label": "Chechen",
    "native": "Нохчийн",
    "wd": "Q33350"
  },
  "ch": {
    "code": "ch",
    "label": "Chamorro",
    "native": "Chamoru",
    "wd": "Q33262"
  },
  "co": {
    "code": "co",
    "label": "Corsican",
    "native": "Corsu",
    "wd": "Q33111"
  },
  "cr": {
    "code": "cr",
    "label": "Cree",
    "native": "Nehiyaw",
    "wd": "Q33390"
  },
  "cs": {
    "code": "cs",
    "label": "Czech",
    "native": "Česky",
    "wd": "Q9056"
  },
  "cu": {
    "code": "cu",
    "label": "Old Church Slavonic",
    "native": "словѣньскъ",
    "wd": "Q35499"
  },
  "cv": {
    "code": "cv",
    "label": "Chuvash",
    "native": "Чăваш",
    "wd": "Q33348"
  },
  "cy": {
    "code": "cy",
    "label": "Welsh",
    "native": "Cymraeg",
    "wd": "Q9309"
  },
  "da": {
    "code": "da",
    "label": "Danish",
    "native": "Dansk",
    "wd": "Q9035"
  },
  "de": {
    "code": "de",
    "label": "German",
    "native": "Deutsch",
    "wd": "Q188"
  },
  "dv": {
    "code": "dv",
    "label": "Divehi",
    "native": "ދިވެހިބަސް",
    "wd": "Q32656"
  },
  "dz": {
    "code": "dz",
    "label": "Dzongkha",
    "native": "ཇོང་ཁ",
    "wd": "Q33081"
  },
  "ee": {
    "code": "ee",
    "label": "Ewe",
    "native": "Ɛʋɛ",
    "wd": "Q30005"
  },
  "el": {
    "code": "el",
    "label": "Greek",
    "native": "Ελληνικά",
    "wd": "Q36510"
  },
  "en": {
    "code": "en",
    "label": "English",
    "native": "English",
    "wd": "Q1860"
  },
  "eo": {
    "code": "eo",
    "label": "Esperanto",
    "native": "Esperanto",
    "wd": "Q143"
  },
  "es": {
    "code": "es",
    "label": "Spanish",
    "native": "Español",
    "wd": "Q1321"
  },
  "et": {
    "code": "et",
    "label": "Estonian",
    "native": "Eesti",
    "wd": "Q9072"
  },
  "eu": {
    "code": "eu",
    "label": "Basque",
    "native": "Euskara",
    "wd": "Q8752"
  },
  "fa": {
    "code": "fa",
    "label": "Persian",
    "native": "فارسی",
    "wd": "Q9168"
  },
  "ff": {
    "code": "ff",
    "label": "Peul",
    "native": "Fulfulde",
    "wd": "Q33454"
  },
  "fi": {
    "code": "fi",
    "label": "Finnish",
    "native": "Suomi",
    "wd": "Q1412"
  },
  "fj": {
    "code": "fj",
    "label": "Fijian",
    "native": "Na Vosa Vakaviti",
    "wd": "Q33295"
  },
  "fo": {
    "code": "fo",
    "label": "Faroese",
    "native": "Føroyskt",
    "wd": "Q25258"
  },
  "fr": {
    "code": "fr",
    "label": "French",
    "native": "Français",
    "wd": "Q150"
  },
  "fy": {
    "code": "fy",
    "label": "West Frisian",
    "native": "Frysk",
    "wd": "Q27175"
  },
  "ga": {
    "code": "ga",
    "label": "Irish",
    "native": "Gaeilge",
    "wd": "Q9142"
  },
  "gd": {
    "code": "gd",
    "label": "Scottish Gaelic",
    "native": "Gàidhlig",
    "wd": "Q9314"
  },
  "gl": {
    "code": "gl",
    "label": "Galician",
    "native": "Galego",
    "wd": "Q9307"
  },
  "gn": {
    "code": "gn",
    "label": "Guarani",
    "native": "Avañe'ẽ",
    "wd": "Q35876"
  },
  "gu": {
    "code": "gu",
    "label": "Gujarati",
    "native": "ગુજરાતી",
    "wd": "Q5137"
  },
  "gv": {
    "code": "gv",
    "label": "Manx",
    "native": "Gaelg",
    "wd": "Q12175"
  },
  "ha": {
    "code": "ha",
    "label": "Hausa",
    "native": "هَوُسَ",
    "wd": "Q56475"
  },
  "he": {
    "code": "he",
    "label": "Hebrew",
    "native": "עברית",
    "wd": "Q9288"
  },
  "hi": {
    "code": "hi",
    "label": "Hindi",
    "native": "हिन्दी",
    "wd": "Q1568"
  },
  "ho": {
    "code": "ho",
    "label": "Hiri Motu",
    "native": "Hiri Motu",
    "wd": "Q33617"
  },
  "hr": {
    "code": "hr",
    "label": "Croatian",
    "native": "Hrvatski",
    "wd": "Q6654"
  },
  "ht": {
    "code": "ht",
    "label": "Haitian",
    "native": "Krèyol ayisyen",
    "wd": "Q33491"
  },
  "hu": {
    "code": "hu",
    "label": "Hungarian",
    "native": "Magyar",
    "wd": "Q9067"
  },
  "hy": {
    "code": "hy",
    "label": "Armenian",
    "native": "Հայերեն",
    "wd": "Q8785"
  },
  "hz": {
    "code": "hz",
    "label": "Herero",
    "native": "Otsiherero",
    "wd": "Q33315"
  },
  "ia": {
    "code": "ia",
    "label": "Interlingua",
    "native": "Interlingua",
    "wd": "Q35934"
  },
  "id": {
    "code": "id",
    "label": "Indonesian",
    "native": "Bahasa Indonesia",
    "wd": "Q9240"
  },
  "ie": {
    "code": "ie",
    "label": "Interlingue",
    "native": "Interlingue",
    "wd": "Q35850"
  },
  "ig": {
    "code": "ig",
    "label": "Igbo",
    "native": "Igbo",
    "wd": "Q33578"
  },
  "ii": {
    "code": "ii",
    "label": "Sichuan Yi",
    "native": "四川彝语",
    "wd": "Q34235"
  },
  "ik": {
    "code": "ik",
    "label": "Inupiak",
    "native": "Iñupiak",
    "wd": "Q27183"
  },
  "io": {
    "code": "io",
    "label": "Ido",
    "native": "Ido",
    "wd": "Q35224"
  },
  "is": {
    "code": "is",
    "label": "Icelandic",
    "native": "Íslenska",
    "wd": "Q294"
  },
  "it": {
    "code": "it",
    "label": "Italian",
    "native": "Italiano",
    "wd": "Q652"
  },
  "iu": {
    "code": "iu",
    "label": "Inuktitut",
    "native": "ᐃᓄᒃᑎᑐᑦ",
    "wd": "Q29921"
  },
  "ja": {
    "code": "ja",
    "label": "Japanese",
    "native": "日本語",
    "wd": "Q5287"
  },
  "jv": {
    "code": "jv",
    "label": "Javanese",
    "native": "Basa Jawa",
    "wd": "Q33549"
  },
  "ka": {
    "code": "ka",
    "label": "Georgian",
    "native": "ქართული",
    "wd": "Q8108"
  },
  "kg": {
    "code": "kg",
    "label": "Kongo",
    "native": "KiKongo",
    "wd": "Q33702"
  },
  "ki": {
    "code": "ki",
    "label": "Kikuyu",
    "native": "Gĩkũyũ",
    "wd": "Q33587"
  },
  "kj": {
    "code": "kj",
    "label": "Kuanyama",
    "native": "Kuanyama",
    "wd":"Q1405077"
  },
  "kk": {
    "code": "kk",
    "label": "Kazakh",
    "native": "Қазақша",
    "wd": "Q9252"
  },
  "kl": {
    "code": "kl",
    "label": "Greenlandic",
    "native": "Kalaallisut",
    "wd": "Q25355"
  },
  "km": {
    "code": "km",
    "label": "Cambodian",
    "native": "ភាសាខ្មែរ",
    "wd": "Q9205"
  },
  "kn": {
    "code": "kn",
    "label": "Kannada",
    "native": "ಕನ್ನಡ",
    "wd": "Q33673"
  },
  "ko": {
    "code": "ko",
    "label": "Korean",
    "native": "한국어",
    "wd": "Q9176"
  },
  "kr": {
    "code": "kr",
    "label": "Kanuri",
    "native": "Kanuri",
    "wd": "Q36094"
  },
  "ks": {
    "code": "ks",
    "label": "Kashmiri",
    "native": "कश्मीरी",
    "wd": "Q33552"
  },
  "ku": {
    "code": "ku",
    "label": "Kurdish",
    "native": "كوردی",
    "wd": "Q36368"
  },
  "kv": {
    "code": "kv",
    "label": "Komi",
    "native": "Коми",
    "wd": "Q36126"
  },
  "kw": {
    "code": "kw",
    "label": "Cornish",
    "native": "Kernewek",
    "wd": "Q25289"
  },
  "ky": {
    "code": "ky",
    "label": "Kirghiz",
    "native": "Kırgızca",
    "wd": "Q9255"
  },
  "la": {
    "code": "la",
    "label": "Latin",
    "native": "Latina",
    "wd": "Q397"
  },
  "lb": {
    "code": "lb",
    "label": "Luxembourgish",
    "native": "Lëtzebuergesch",
    "wd": "Q9051"
  },
  "lg": {
    "code": "lg",
    "label": "Ganda",
    "native": "Luganda",
    "wd": "Q33368"
  },
  "li": {
    "code": "li",
    "label": "Limburgian",
    "native": "Limburgs",
    "wd": "Q102172"
  },
  "ln": {
    "code": "ln",
    "label": "Lingala",
    "native": "Lingála",
    "wd": "Q36217"
  },
  "lo": {
    "code": "lo",
    "label": "Laotian",
    "native": "ລາວ",
    "wd": "Q9211"
  },
  "lt": {
    "code": "lt",
    "label": "Lithuanian",
    "native": "Lietuvių",
    "wd": "Q9083"
  },
  "lv": {
    "code": "lv",
    "label": "Latvian",
    "native": "Latviešu",
    "wd": "Q9078"
  },
  "mg": {
    "code": "mg",
    "label": "Malagasy",
    "native": "Malagasy",
    "wd": "Q7930"
  },
  "mh": {
    "code": "mh",
    "label": "Marshallese",
    "native": "Kajin Majel",
    "wd": "Q36280"
  },
  "mi": {
    "code": "mi",
    "label": "Maori",
    "native": "Māori",
    "wd": "Q36451"
  },
  "mk": {
    "code": "mk",
    "label": "Macedonian",
    "native": "Македонски",
    "wd": "Q9296"
  },
  "ml": {
    "code": "ml",
    "label": "Malayalam",
    "native": "മലയാളം",
    "wd": "Q36236"
  },
  "mn": {
    "code": "mn",
    "label": "Mongolian",
    "native": "Монгол",
    "wd": "Q9246"
  },
  "mo": {
    "code": "mo",
    "label": "Moldovan",
    "native": "Moldovenească",
    "wd":"Q36392"
  },
  "mr": {
    "code": "mr",
    "label": "Marathi",
    "native": "मराठी",
    "wd": "Q1571"
  },
  "ms": {
    "code": "ms",
    "label": "Malay",
    "native": "Bahasa Melayu",
    "wd": "Q9237"
  },
  "mt": {
    "code": "mt",
    "label": "Maltese",
    "native": "bil-Malti",
    "wd": "Q9166"
  },
  "my": {
    "code": "my",
    "label": "Burmese",
    "native": "Myanmasa",
    "wd": "Q9228"
  },
  "na": {
    "code": "na",
    "label": "Nauruan",
    "native": "Dorerin Naoero",
    "wd": "Q13307"
  },
  "nb": {
    "code": "nb",
    "label": "Norwegian Bokmål",
    "native": "Bokmål",
    "wd": "Q25167"
  },
  "nd": {
    "code": "nd",
    "label": "North Ndebele",
    "native": "Sindebele",
    "wd": "Q35613"
  },
  "ne": {
    "code": "ne",
    "label": "Nepali",
    "native": "नेपाली",
    "wd": "Q33823"
  },
  "ng": {
    "code": "ng",
    "label": "Ndonga",
    "native": "Oshiwambo",
    "wd": "Q33900"
  },
  "nl": {
    "code": "nl",
    "label": "Dutch",
    "native": "Nederlands",
    "wd": "Q7411"
  },
  "nn": {
    "code": "nn",
    "label": "Norwegian Nynorsk",
    "native": "Norsk (nynorsk)",
    "wd": "Q25164"
  },
  "no": {
    "code": "no",
    "label": "Norwegian",
    "native": "Norsk",
    "wd": "Q9043"
  },
  "nr": {
    "code": "nr",
    "label": "South Ndebele",
    "native": "isiNdebele",
    "wd": "Q36785"
  },
  "nv": {
    "code": "nv",
    "label": "Navajo",
    "native": "Diné bizaad",
    "wd": "Q13310"
  },
  "ny": {
    "code": "ny",
    "label": "Chichewa",
    "native": "Chi-Chewa",
    "wd": "Q33273"
  },
  "oc": {
    "code": "oc",
    "label": "Occitan",
    "native": "Occitan",
    "wd": "Q14185"
  },
  "oj": {
    "code": "oj",
    "label": "Ojibwa",
    "native": "ᐊᓂᔑᓈᐯᒧᐎᓐ",
    "wd": "Q33875"
  },
  "om": {
    "code": "om",
    "label": "Oromo",
    "native": "Oromoo",
    "wd": "Q33864"
  },
  "or": {
    "code": "or",
    "label": "Oriya",
    "native": "ଓଡ଼ିଆ",
    "wd": "Q33810"
  },
  "os": {
    "code": "os",
    "label": "Ossetian",
    "native": "Иронау",
    "wd": "Q33968"
  },
  "pa": {
    "code": "pa",
    "label": "Panjabi",
    "native": "ਪੰਜਾਬੀ",
    "wd": "Q58635"
  },
  "pi": {
    "code": "pi",
    "label": "Pali",
    "native": "Pāli",
    "wd": "Q36727"
  },
  "pl": {
    "code": "pl",
    "label": "Polish",
    "native": "Polski",
    "wd": "Q809"
  },
  "ps": {
    "code": "ps",
    "label": "Pashto",
    "native": "پښتو",
    "wd": "Q58680"
  },
  "pt": {
    "code": "pt",
    "label": "Portuguese",
    "native": "Português",
    "wd": "Q5146"
  },
  "qu": {
    "code": "qu",
    "label": "Quechua",
    "native": "Runa Simi",
    "wd": "Q5218"
  },
  "rm": {
    "code": "rm",
    "label": "Raeto Romance",
    "native": "Rumantsch",
    "wd": "Q13199"
  },
  "rn": {
    "code": "rn",
    "label": "Kirundi",
    "native": "Kirundi",
    "wd": "Q33583"
  },
  "ro": {
    "code": "ro",
    "label": "Romanian",
    "native": "Română",
    "wd": "Q7913"
  },
  "ru": {
    "code": "ru",
    "label": "Russian",
    "native": "Русский",
    "wd": "Q7737"
  },
  "rw": {
    "code": "rw",
    "label": "Rwandi",
    "native": "Kinyarwandi",
    "wd": "Q33573"
  },
  "sa": {
    "code": "sa",
    "label": "Sanskrit",
    "native": "संस्कृतम्",
    "wd": "Q11059"
  },
  "sc": {
    "code": "sc",
    "label": "Sardinian",
    "native": "Sardu",
    "wd": "Q33976"
  },
  "sd": {
    "code": "sd",
    "label": "Sindhi",
    "native": "सिनधि",
    "wd": "Q33997"
  },
  "se": {
    "code": "se",
    "label": "Northern Sami",
    "native": "Sámegiella",
    "wd": "Q33947"
  },
  "sg": {
    "code": "sg",
    "label": "Sango",
    "native": "Sängö",
    "wd": "Q33954"
  },
  "sh": {
    "code": "sh",
    "label": "Serbo-Croatian",
    "native": "Srpskohrvatski",
    "wd": "Q9301"
  },
  "si": {
    "code": "si",
    "label": "Sinhalese",
    "native": "සිංහල",
    "wd": "Q13267"
  },
  "sk": {
    "code": "sk",
    "label": "Slovak",
    "native": "Slovenčina",
    "wd": "Q9058"
  },
  "sl": {
    "code": "sl",
    "label": "Slovenian",
    "native": "Slovenščina",
    "wd": "Q9063"
  },
  "sm": {
    "code": "sm",
    "label": "Samoan",
    "native": "Gagana Samoa",
    "wd": "Q34011"
  },
  "sn": {
    "code": "sn",
    "label": "Shona",
    "native": "chiShona",
    "wd": "Q34004"
  },
  "so": {
    "code": "so",
    "label": "Somalia",
    "native": "Soomaaliga",
    "wd": "Q13275"
  },
  "sq": {
    "code": "sq",
    "label": "Albanian",
    "native": "Shqip",
    "wd": "Q8748"
  },
  "sr": {
    "code": "sr",
    "label": "Serbian",
    "native": "Српски",
    "wd": "Q9299"
  },
  "ss": {
    "code": "ss",
    "label": "Swati",
    "native": "SiSwati",
    "wd": "Q34014"
  },
  "st": {
    "code": "st",
    "label": "Southern Sotho",
    "native": "Sesotho",
    "wd": "Q34340"
  },
  "su": {
    "code": "su",
    "label": "Sundanese",
    "native": "Basa Sunda",
    "wd": "Q34002"
  },
  "sv": {
    "code": "sv",
    "label": "Swedish",
    "native": "Svenska",
    "wd": "Q9027"
  },
  "sw": {
    "code": "sw",
    "label": "Swahili",
    "native": "Kiswahili",
    "wd": "Q7838"
  },
  "ta": {
    "code": "ta",
    "label": "Tamil",
    "native": "தமிழ்",
    "wd": "Q5885"
  },
  "te": {
    "code": "te",
    "label": "Telugu",
    "native": "తెలుగు",
    "wd": "Q8097"
  },
  "tg": {
    "code": "tg",
    "label": "Tajik",
    "native": "Тоҷикӣ",
    "wd": "Q9260"
  },
  "th": {
    "code": "th",
    "label": "Thai",
    "native": "ไทย",
    "wd": "Q9217"
  },
  "ti": {
    "code": "ti",
    "label": "Tigrinya",
    "native": "ትግርኛ",
    "wd": "Q34124"
  },
  "tk": {
    "code": "tk",
    "label": "Turkmen",
    "native": "Туркмен",
    "wd": "Q9267"
  },
  "tl": {
    "code": "tl",
    "label": "Tagalog",
    "native": "Tagalog",
    "wd": "Q34057"
  },
  "tn": {
    "code": "tn",
    "label": "Tswana",
    "native": "Setswana",
    "wd": "Q34137"
  },
  "to": {
    "code": "to",
    "label": "Tonga",
    "native": "Lea Faka-Tonga",
    "wd": "Q34094"
  },
  "tr": {
    "code": "tr",
    "label": "Turkish",
    "native": "Türkçe",
    "wd": "Q256"
  },
  "ts": {
    "code": "ts",
    "label": "Tsonga",
    "native": "Xitsonga",
    "wd": "Q34327"
  },
  "tt": {
    "code": "tt",
    "label": "Tatar",
    "native": "Tatarça",
    "wd": "Q25285"
  },
  "tw": {
    "code": "tw",
    "label": "Twi",
    "native": "Twi",
    "wd": "Q36850"
  },
  "ty": {
    "code": "ty",
    "label": "Tahitian",
    "native": "Reo Mā`ohi",
    "wd": "Q34128"
  },
  "ug": {
    "code": "ug",
    "label": "Uyghur",
    "native": "Uyƣurqə",
    "wd": "Q13263"
  },
  "uk": {
    "code": "uk",
    "label": "Ukrainian",
    "native": "Українська",
    "wd": "Q8798"
  },
  "ur": {
    "code": "ur",
    "label": "Urdu",
    "native": "اردو",
    "wd": "Q1617"
  },
  "uz": {
    "code": "uz",
    "label": "Uzbek",
    "native": "Ўзбек",
    "wd": "Q9264"
  },
  "ve": {
    "code": "ve",
    "label": "Venda",
    "native": "Tshivenḓa",
    "wd": "Q32704"
  },
  "vi": {
    "code": "vi",
    "label": "Vietnamese",
    "native": "Tiếng Việt",
    "wd": "Q9199"
  },
  "vo": {
    "code": "vo",
    "label": "Volapük",
    "native": "Volapük",
    "wd": "Q36986"
  },
  "wa": {
    "code": "wa",
    "label": "Walloon",
    "native": "Walon",
    "wd": "Q34219"
  },
  "wo": {
    "code": "wo",
    "label": "Wolof",
    "native": "Wollof",
    "wd": "Q34257"
  },
  "xh": {
    "code": "xh",
    "label": "Xhosa",
    "native": "isiXhosa",
    "wd": "Q13218"
  },
  "yi": {
    "code": "yi",
    "label": "Yiddish",
    "native": "ייִדיש",
    "wd": "Q8641"
  },
  "yo": {
    "code": "yo",
    "label": "Yoruba",
    "native": "Yorùbá",
    "wd": "Q34311"
  },
  "za": {
    "code": "za",
    "label": "Zhuang",
    "native": "Cuengh",
    "wd": "Q13216"
  },
  "zh": {
    "code": "zh",
    "label": "Chinese",
    "native": "中文",
    "wd": "Q7850"
  },
  "zu": {
    "code": "zu",
    "label": "Zulu",
    "native": "isiZulu",
    "wd": "Q10179"
  }
}